{
  "CN": "etcd",
  "hosts": ["127.0.0.1", "192.168.1.42", "192.168.1.43", "192.168.1.44"],
  "key": {
    "algo": "rsa",
    "size": 2048
  },
  "names": [
    {
      "C": "CN",
      "ST": "BeiJing",
      "L": "BeiJing",
      "O": "k8s",
      "OU": "4Paradigm"
    }
  ]
}
