module hello

require (
	github.com/dgrijalva/jwt-go v3.2.0+incompatible
	github.com/gorilla/websocket v1.4.0
	github.com/labstack/echo v3.3.5+incompatible
	github.com/labstack/gommon v0.2.8 // indirect
	github.com/mattn/go-colorable v0.0.9 // indirect
	github.com/mattn/go-isatty v0.0.4 // indirect
	github.com/mattn/go-sqlite3 v1.10.0
	github.com/pebbe/zmq4 v1.0.0 // indirect
	github.com/sacOO7/go-logger v0.0.0-20180719173527-9ac9add5a50d
	github.com/valyala/bytebufferpool v1.0.0 // indirect
	github.com/valyala/fasttemplate v0.0.0-20170224212429-dcecefd839c4 // indirect
	golang.org/x/crypto v0.0.0-20181112202954-3d3f9f413869 // indirect
)
