[
    {
        "arguments": [
            "g++",
            "-c",
            "-Wall",
            "-pedantic",
            "-o",
            "app.o",
            "app.cc"
        ],
        "directory": "/home/maple/tmp/explore-the-world/zmq-json-rpc-cpp",
        "file": "app.cc"
    }
]