{
  "log": {
    "loglevel": "warning"
  },
  "inbounds": [
    {
      "port": 1080,
      "listen": "127.0.0.1",
      "protocol": "socks",
      "sniffing": {
        "enabled": true,
        "destOverride": [
          "http",
          "tls"
        ]
      },
      "settings": {
        "auth": "noauth",
        "udp": false,
        "ip": "127.0.0.1"
      }
    }
  ],
  "outbounds": [
    {
      "protocol": "vmess",
      "settings": {
        "vnext": [
          {
            "address": "messi10.xyz",
            "port": 443,
            "users": [
              {
                "id": "bd1f1cc6-021e-4975-b4d0-1e6f07cf1138",
                "alterId": 64
              }
            ]
          }
        ]
      },
      "streamSettings": {
        "network": "ws",
        "security": "tls",
        "wsSettings": {
          "path": "/ray",
          "headers": {}
        },
        "tlsSettings": {
          "serverName": "messi10.xyz",
          "allowInsecure": false
        }
      }
    }
  ]
}